{
    "m_SGVersion": 3,
    "m_Type": "UnityEditor.ShaderGraph.GraphData",
    "m_ObjectId": "e715a8e5b89e42209dfa77a5b1ecd76b",
    "m_Properties": [
        {
            "m_Id": "8a76e3d6e45947059cfa278be5cdf33a"
        },
        {
            "m_Id": "bada3fa1bc9b45b889447b53d7454380"
        },
        {
            "m_Id": "facbd1b9447349a1ba3cebb955aa1c02"
        }
    ],
    "m_Keywords": [],
    "m_Dropdowns": [],
    "m_CategoryData": [
        {
            "m_Id": "29122209c37942c9a05e53ad322f180c"
        }
    ],
    "m_Nodes": [
        {
            "m_Id": "d714daa8c8be4d6ea45771b61efffc2c"
        },
        {
            "m_Id": "944a9cb201ba4159acc5eaf2ecbcf2bd"
        },
        {
            "m_Id": "2f12ddaab50c43aa8ae83c7af40c99c6"
        },
        {
            "m_Id": "110aa00e9c7141ef80553bedeac5c8b5"
        },
        {
            "m_Id": "fab1c69e78784aaba12bb4a6712cbfbd"
        },
        {
            "m_Id": "a18b53a6c78b4f3297c2c338714511a1"
        },
        {
            "m_Id": "d2e01d174d264ad09e283c552d76d252"
        },
        {
            "m_Id": "b0aa6af026ff415da4ea0decf3b9be8f"
        },
        {
            "m_Id": "c97388d0ce924c8dba2f902993c3502f"
        },
        {
            "m_Id": "11df2d54dcea4b79b558dc6b2308a10c"
        },
        {
            "m_Id": "5477623b156c4529afbf882910ad71f2"
        },
        {
            "m_Id": "bb488c402b0649088304d1c1f2651782"
        },
        {
            "m_Id": "5b92a81458bd4576b2d11adc11c0f40b"
        },
        {
            "m_Id": "e62f88763e214b55a4c8c9bd9bbf5c5f"
        },
        {
            "m_Id": "8bec8945b7984527b0f93602133ae84f"
        },
        {
            "m_Id": "dcfcd6ac69ee417193c2ae1a0b3a7589"
        },
        {
            "m_Id": "68015c1129b947518acb126a595cad0d"
        },
        {
            "m_Id": "1d660618720546438fb6f4a6d11582f5"
        },
        {
            "m_Id": "6302b9092bc8494daf65f4838c7f5c3d"
        },
        {
            "m_Id": "68ae386ffe4446719bdd21ad2f721c69"
        }
    ],
    "m_GroupDatas": [],
    "m_StickyNoteDatas": [],
    "m_Edges": [
        {
            "m_OutputSlot": {
                "m_Node": {
                    "m_Id": "11df2d54dcea4b79b558dc6b2308a10c"
                },
                "m_SlotId": 0
            },
            "m_InputSlot": {
                "m_Node": {
                    "m_Id": "5b92a81458bd4576b2d11adc11c0f40b"
                },
                "m_SlotId": 0
            }
        },
        {
            "m_OutputSlot": {
                "m_Node": {
                    "m_Id": "1d660618720546438fb6f4a6d11582f5"
                },
                "m_SlotId": 4
            },
            "m_InputSlot": {
                "m_Node": {
                    "m_Id": "fab1c69e78784aaba12bb4a6712cbfbd"
                },
                "m_SlotId": 0
            }
        },
        {
            "m_OutputSlot": {
                "m_Node": {
                    "m_Id": "5477623b156c4529afbf882910ad71f2"
                },
                "m_SlotId": 3
            },
            "m_InputSlot": {
                "m_Node": {
                    "m_Id": "5b92a81458bd4576b2d11adc11c0f40b"
                },
                "m_SlotId": 1
            }
        },
        {
            "m_OutputSlot": {
                "m_Node": {
                    "m_Id": "5477623b156c4529afbf882910ad71f2"
                },
                "m_SlotId": 4
            },
            "m_InputSlot": {
                "m_Node": {
                    "m_Id": "dcfcd6ac69ee417193c2ae1a0b3a7589"
                },
                "m_SlotId": 0
            }
        },
        {
            "m_OutputSlot": {
                "m_Node": {
                    "m_Id": "5b92a81458bd4576b2d11adc11c0f40b"
                },
                "m_SlotId": 2
            },
            "m_InputSlot": {
                "m_Node": {
                    "m_Id": "bb488c402b0649088304d1c1f2651782"
                },
                "m_SlotId": 0
            }
        },
        {
            "m_OutputSlot": {
                "m_Node": {
                    "m_Id": "6302b9092bc8494daf65f4838c7f5c3d"
                },
                "m_SlotId": 0
            },
            "m_InputSlot": {
                "m_Node": {
                    "m_Id": "68ae386ffe4446719bdd21ad2f721c69"
                },
                "m_SlotId": 1
            }
        },
        {
            "m_OutputSlot": {
                "m_Node": {
                    "m_Id": "68015c1129b947518acb126a595cad0d"
                },
                "m_SlotId": 0
            },
            "m_InputSlot": {
                "m_Node": {
                    "m_Id": "dcfcd6ac69ee417193c2ae1a0b3a7589"
                },
                "m_SlotId": 1
            }
        },
        {
            "m_OutputSlot": {
                "m_Node": {
                    "m_Id": "68ae386ffe4446719bdd21ad2f721c69"
                },
                "m_SlotId": 4
            },
            "m_InputSlot": {
                "m_Node": {
                    "m_Id": "1d660618720546438fb6f4a6d11582f5"
                },
                "m_SlotId": 1
            }
        },
        {
            "m_OutputSlot": {
                "m_Node": {
                    "m_Id": "8bec8945b7984527b0f93602133ae84f"
                },
                "m_SlotId": 2
            },
            "m_InputSlot": {
                "m_Node": {
                    "m_Id": "5477623b156c4529afbf882910ad71f2"
                },
                "m_SlotId": 1
            }
        },
        {
            "m_OutputSlot": {
                "m_Node": {
                    "m_Id": "bb488c402b0649088304d1c1f2651782"
                },
                "m_SlotId": 2
            },
            "m_InputSlot": {
                "m_Node": {
                    "m_Id": "110aa00e9c7141ef80553bedeac5c8b5"
                },
                "m_SlotId": 0
            }
        },
        {
            "m_OutputSlot": {
                "m_Node": {
                    "m_Id": "dcfcd6ac69ee417193c2ae1a0b3a7589"
                },
                "m_SlotId": 2
            },
            "m_InputSlot": {
                "m_Node": {
                    "m_Id": "1d660618720546438fb6f4a6d11582f5"
                },
                "m_SlotId": 0
            }
        },
        {
            "m_OutputSlot": {
                "m_Node": {
                    "m_Id": "e62f88763e214b55a4c8c9bd9bbf5c5f"
                },
                "m_SlotId": 0
            },
            "m_InputSlot": {
                "m_Node": {
                    "m_Id": "bb488c402b0649088304d1c1f2651782"
                },
                "m_SlotId": 1
            }
        }
    ],
    "m_VertexContext": {
        "m_Position": {
            "x": 153.333251953125,
            "y": 71.33330535888672
        },
        "m_Blocks": [
            {
                "m_Id": "d714daa8c8be4d6ea45771b61efffc2c"
            },
            {
                "m_Id": "944a9cb201ba4159acc5eaf2ecbcf2bd"
            },
            {
                "m_Id": "2f12ddaab50c43aa8ae83c7af40c99c6"
            }
        ]
    },
    "m_FragmentContext": {
        "m_Position": {
            "x": 153.333251953125,
            "y": 283.3332824707031
        },
        "m_Blocks": [
            {
                "m_Id": "110aa00e9c7141ef80553bedeac5c8b5"
            },
            {
                "m_Id": "fab1c69e78784aaba12bb4a6712cbfbd"
            },
            {
                "m_Id": "a18b53a6c78b4f3297c2c338714511a1"
            },
            {
                "m_Id": "d2e01d174d264ad09e283c552d76d252"
            },
            {
                "m_Id": "b0aa6af026ff415da4ea0decf3b9be8f"
            },
            {
                "m_Id": "c97388d0ce924c8dba2f902993c3502f"
            }
        ]
    },
    "m_PreviewData": {
        "serializedMesh": {
            "m_SerializedMesh": "{\"mesh\":{\"instanceID\":0}}",
            "m_Guid": ""
        },
        "preventRotation": false
    },
    "m_Path": "Shader Graphs",
    "m_GraphPrecision": 1,
    "m_PreviewMode": 2,
    "m_OutputNode": {
        "m_Id": ""
    },
    "m_ActiveTargets": [
        {
            "m_Id": "ab1279a353214a2a87b941ee460541be"
        }
    ]
}

{
    "m_SGVersion": 0,
    "m_Type": "UnityEditor.ShaderGraph.Vector2MaterialSlot",
    "m_ObjectId": "0124714062ac489ba75d4f74ab40c70a",
    "m_Id": 3,
    "m_DisplayName": "Offset",
    "m_SlotType": 0,
    "m_Hidden": false,
    "m_ShaderOutputName": "Offset",
    "m_StageCapability": 3,
    "m_Value": {
        "x": 0.0,
        "y": 0.0
    },
    "m_DefaultValue": {
        "x": 0.0,
        "y": 0.0
    },
    "m_Labels": []
}

{
    "m_SGVersion": 0,
    "m_Type": "UnityEditor.ShaderGraph.Vector1MaterialSlot",
    "m_ObjectId": "05d80ad5c588478b9ff5c7469b68f22d",
    "m_Id": 0,
    "m_DisplayName": "Ambient Occlusion",
    "m_SlotType": 0,
    "m_Hidden": false,
    "m_ShaderOutputName": "Occlusion",
    "m_StageCapability": 2,
    "m_Value": 1.3300000429153443,
    "m_DefaultValue": 1.0,
    "m_Labels": []
}

{
    "m_SGVersion": 0,
    "m_Type": "UnityEditor.ShaderGraph.Vector2MaterialSlot",
    "m_ObjectId": "0cf2163e6f7f4e979e8a2036423ee517",
    "m_Id": 4,
    "m_DisplayName": "Out",
    "m_SlotType": 1,
    "m_Hidden": false,
    "m_ShaderOutputName": "Out",
    "m_StageCapability": 3,
    "m_Value": {
        "x": 0.0,
        "y": 0.0
    },
    "m_DefaultValue": {
        "x": 0.0,
        "y": 0.0
    },
    "m_Labels": []
}

{
    "m_SGVersion": 0,
    "m_Type": "UnityEditor.ShaderGraph.Vector1MaterialSlot",
    "m_ObjectId": "0ea26e50f5004efd8ecbe8a4b1f96a7c",
    "m_Id": 1,
    "m_DisplayName": "Scale",
    "m_SlotType": 0,
    "m_Hidden": false,
    "m_ShaderOutputName": "Scale",
    "m_StageCapability": 3,
    "m_Value": 10.729999542236329,
    "m_DefaultValue": 10.0,
    "m_Labels": []
}

{
    "m_SGVersion": 0,
    "m_Type": "UnityEditor.ShaderGraph.Vector1MaterialSlot",
    "m_ObjectId": "0fe1de1d510e4dbe952ee5e2e9d601d7",
    "m_Id": 0,
    "m_DisplayName": "escala",
    "m_SlotType": 1,
    "m_Hidden": false,
    "m_ShaderOutputName": "Out",
    "m_StageCapability": 3,
    "m_Value": 0.0,
    "m_DefaultValue": 0.0,
    "m_Labels": []
}

{
    "m_SGVersion": 0,
    "m_Type": "UnityEditor.ShaderGraph.BlockNode",
    "m_ObjectId": "110aa00e9c7141ef80553bedeac5c8b5",
    "m_Group": {
        "m_Id": ""
    },
    "m_Name": "SurfaceDescription.BaseColor",
    "m_DrawState": {
        "m_Expanded": true,
        "m_Position": {
            "serializedVersion": "2",
            "x": 0.0,
            "y": 0.0,
            "width": 0.0,
            "height": 0.0
        }
    },
    "m_Slots": [
        {
            "m_Id": "4f0be95bad794b89a96d363163759948"
        }
    ],
    "synonyms": [],
    "m_Precision": 0,
    "m_PreviewExpanded": true,
    "m_PreviewMode": 0,
    "m_CustomColors": {
        "m_SerializableColors": []
    },
    "m_SerializedDescriptor": "SurfaceDescription.BaseColor"
}

{
    "m_SGVersion": 0,
    "m_Type": "UnityEditor.ShaderGraph.GradientNode",
    "m_ObjectId": "11df2d54dcea4b79b558dc6b2308a10c",
    "m_Group": {
        "m_Id": ""
    },
    "m_Name": "Gradient",
    "m_DrawState": {
        "m_Expanded": true,
        "m_Position": {
            "serializedVersion": "2",
            "x": -1263.3333740234375,
            "y": -381.9999694824219,
            "width": 209.3333740234375,
            "height": 106.66668701171875
        }
    },
    "m_Slots": [
        {
            "m_Id": "12185ac368984d7598da4da2d4038e33"
        }
    ],
    "synonyms": [
        "ramp"
    ],
    "m_Precision": 0,
    "m_PreviewExpanded": true,
    "m_PreviewMode": 0,
    "m_CustomColors": {
        "m_SerializableColors": []
    },
    "m_Value": 0.0,
    "m_SerializableColorKeys": [
        {
            "x": 0.0,
            "y": 0.9291749000549316,
            "z": 1.0,
            "w": 0.0
        },
        {
            "x": 0.24955783784389497,
            "y": 0.02788650617003441,
            "z": 0.4433962106704712,
            "w": 1.0
        }
    ],
    "m_SerializableAlphaKeys": [
        {
            "x": 1.0,
            "y": 0.0
        },
        {
            "x": 1.0,
            "y": 1.0
        }
    ],
    "m_SerializableMode": 0
}

{
    "m_SGVersion": 0,
    "m_Type": "UnityEditor.ShaderGraph.GradientMaterialSlot",
    "m_ObjectId": "12185ac368984d7598da4da2d4038e33",
    "m_Id": 0,
    "m_DisplayName": "Out",
    "m_SlotType": 1,
    "m_Hidden": false,
    "m_ShaderOutputName": "Out",
    "m_StageCapability": 3
}

{
    "m_SGVersion": 0,
    "m_Type": "UnityEditor.ShaderGraph.RadialShearNode",
    "m_ObjectId": "1d660618720546438fb6f4a6d11582f5",
    "m_Group": {
        "m_Id": ""
    },
    "m_Name": "Radial Shear",
    "m_DrawState": {
        "m_Expanded": true,
        "m_Position": {
            "serializedVersion": "2",
            "x": -439.99981689453127,
            "y": 283.33331298828127,
            "width": 209.3331756591797,
            "height": 352.00006103515627
        }
    },
    "m_Slots": [
        {
            "m_Id": "a852236ab43b499cad42845545a739c5"
        },
        {
            "m_Id": "42176de63c434675b0bd83925548e60d"
        },
        {
            "m_Id": "43125d8538194e72a9d09efce1f029e5"
        },
        {
            "m_Id": "341bd02e7fd943a09dca2c6fa2d5e128"
        },
        {
            "m_Id": "667b46071dd84b0d9773a0eedb24f1d9"
        }
    ],
    "synonyms": [],
    "m_Precision": 0,
    "m_PreviewExpanded": true,
    "m_PreviewMode": 0,
    "m_CustomColors": {
        "m_SerializableColors": []
    }
}

{
    "m_SGVersion": 0,
    "m_Type": "UnityEditor.ShaderGraph.Vector1MaterialSlot",
    "m_ObjectId": "1f3d5be02cba49749f1976c2a7ffa9e0",
    "m_Id": 2,
    "m_DisplayName": "Cell Density",
    "m_SlotType": 0,
    "m_Hidden": false,
    "m_ShaderOutputName": "CellDensity",
    "m_StageCapability": 3,
    "m_Value": 6.429999828338623,
    "m_DefaultValue": 5.0,
    "m_Labels": []
}

{
    "m_SGVersion": 0,
    "m_Type": "UnityEditor.ShaderGraph.CategoryData",
    "m_ObjectId": "29122209c37942c9a05e53ad322f180c",
    "m_Name": "",
    "m_ChildObjectList": [
        {
            "m_Id": "8a76e3d6e45947059cfa278be5cdf33a"
        },
        {
            "m_Id": "bada3fa1bc9b45b889447b53d7454380"
        },
        {
            "m_Id": "facbd1b9447349a1ba3cebb955aa1c02"
        }
    ]
}

{
    "m_SGVersion": 0,
    "m_Type": "UnityEditor.ShaderGraph.NormalMaterialSlot",
    "m_ObjectId": "295ae98e36704fb4b61a1cae0ce28e75",
    "m_Id": 0,
    "m_DisplayName": "Normal (Tangent Space)",
    "m_SlotType": 0,
    "m_Hidden": false,
    "m_ShaderOutputName": "NormalTS",
    "m_StageCapability": 2,
    "m_Value": {
        "x": 0.0,
        "y": 0.0,
        "z": 0.0
    },
    "m_DefaultValue": {
        "x": 0.0,
        "y": 0.0,
        "z": 0.0
    },
    "m_Labels": [],
    "m_Space": 3
}

{
    "m_SGVersion": 0,
    "m_Type": "UnityEditor.ShaderGraph.BlockNode",
    "m_ObjectId": "2f12ddaab50c43aa8ae83c7af40c99c6",
    "m_Group": {
        "m_Id": ""
    },
    "m_Name": "VertexDescription.Tangent",
    "m_DrawState": {
        "m_Expanded": true,
        "m_Position": {
            "serializedVersion": "2",
            "x": 0.0,
            "y": 0.0,
            "width": 0.0,
            "height": 0.0
        }
    },
    "m_Slots": [
        {
            "m_Id": "59f5720e659f4fb5a215fd25d8a3799b"
        }
    ],
    "synonyms": [],
    "m_Precision": 0,
    "m_PreviewExpanded": true,
    "m_PreviewMode": 0,
    "m_CustomColors": {
        "m_SerializableColors": []
    },
    "m_SerializedDescriptor": "VertexDescription.Tangent"
}

{
    "m_SGVersion": 0,
    "m_Type": "UnityEditor.ShaderGraph.Vector2MaterialSlot",
    "m_ObjectId": "341bd02e7fd943a09dca2c6fa2d5e128",
    "m_Id": 3,
    "m_DisplayName": "Offset",
    "m_SlotType": 0,
    "m_Hidden": false,
    "m_ShaderOutputName": "Offset",
    "m_StageCapability": 3,
    "m_Value": {
        "x": 0.0,
        "y": 0.0
    },
    "m_DefaultValue": {
        "x": 0.0,
        "y": 0.0
    },
    "m_Labels": []
}

{
    "m_SGVersion": 0,
    "m_Type": "UnityEditor.ShaderGraph.GradientInputMaterialSlot",
    "m_ObjectId": "371089d8718749c8bae2ce8c8fd0744b",
    "m_Id": 0,
    "m_DisplayName": "Gradient",
    "m_SlotType": 0,
    "m_Hidden": false,
    "m_ShaderOutputName": "Gradient",
    "m_StageCapability": 3,
    "m_Value": {
        "serializedVersion": "2",
        "key0": {
            "r": 1.0,
            "g": 1.0,
            "b": 1.0,
            "a": 1.0
        },
        "key1": {
            "r": 1.0,
            "g": 1.0,
            "b": 1.0,
            "a": 1.0
        },
        "key2": {
            "r": 0.0,
            "g": 0.0,
            "b": 0.0,
            "a": 0.0
        },
        "key3": {
            "r": 0.0,
            "g": 0.0,
            "b": 0.0,
            "a": 0.0
        },
        "key4": {
            "r": 0.0,
            "g": 0.0,
            "b": 0.0,
            "a": 0.0
        },
        "key5": {
            "r": 0.0,
            "g": 0.0,
            "b": 0.0,
            "a": 0.0
        },
        "key6": {
            "r": 0.0,
            "g": 0.0,
            "b": 0.0,
            "a": 0.0
        },
        "key7": {
            "r": 0.0,
            "g": 0.0,
            "b": 0.0,
            "a": 0.0
        },
        "ctime0": 0,
        "ctime1": 65535,
        "ctime2": 0,
        "ctime3": 0,
        "ctime4": 0,
        "ctime5": 0,
        "ctime6": 0,
        "ctime7": 0,
        "atime0": 0,
        "atime1": 65535,
        "atime2": 0,
        "atime3": 0,
        "atime4": 0,
        "atime5": 0,
        "atime6": 0,
        "atime7": 0,
        "m_Mode": 0,
        "m_NumColorKeys": 2,
        "m_NumAlphaKeys": 2
    },
    "m_DefaultValue": {
        "serializedVersion": "2",
        "key0": {
            "r": 1.0,
            "g": 1.0,
            "b": 1.0,
            "a": 1.0
        },
        "key1": {
            "r": 1.0,
            "g": 1.0,
            "b": 1.0,
            "a": 1.0
        },
        "key2": {
            "r": 0.0,
            "g": 0.0,
            "b": 0.0,
            "a": 0.0
        },
        "key3": {
            "r": 0.0,
            "g": 0.0,
            "b": 0.0,
            "a": 0.0
        },
        "key4": {
            "r": 0.0,
            "g": 0.0,
            "b": 0.0,
            "a": 0.0
        },
        "key5": {
            "r": 0.0,
            "g": 0.0,
            "b": 0.0,
            "a": 0.0
        },
        "key6": {
            "r": 0.0,
            "g": 0.0,
            "b": 0.0,
            "a": 0.0
        },
        "key7": {
            "r": 0.0,
            "g": 0.0,
            "b": 0.0,
            "a": 0.0
        },
        "ctime0": 0,
        "ctime1": 65535,
        "ctime2": 0,
        "ctime3": 0,
        "ctime4": 0,
        "ctime5": 0,
        "ctime6": 0,
        "ctime7": 0,
        "atime0": 0,
        "atime1": 65535,
        "atime2": 0,
        "atime3": 0,
        "atime4": 0,
        "atime5": 0,
        "atime6": 0,
        "atime7": 0,
        "m_Mode": 0,
        "m_NumColorKeys": 2,
        "m_NumAlphaKeys": 2
    }
}

{
    "m_SGVersion": 0,
    "m_Type": "UnityEditor.ShaderGraph.ColorRGBMaterialSlot",
    "m_ObjectId": "3ad6e3407dcf4d08b54c831a686900a5",
    "m_Id": 0,
    "m_DisplayName": "Emission",
    "m_SlotType": 0,
    "m_Hidden": false,
    "m_ShaderOutputName": "Emission",
    "m_StageCapability": 2,
    "m_Value": {
        "x": 0.0,
        "y": 0.0,
        "z": 0.0
    },
    "m_DefaultValue": {
        "x": 0.0,
        "y": 0.0,
        "z": 0.0
    },
    "m_Labels": [],
    "m_ColorMode": 1,
    "m_DefaultColor": {
        "r": 0.0,
        "g": 0.0,
        "b": 0.0,
        "a": 1.0
    }
}

{
    "m_SGVersion": 0,
    "m_Type": "UnityEditor.ShaderGraph.DynamicValueMaterialSlot",
    "m_ObjectId": "3cfb64b622d14070a73d8bb656e3b08b",
    "m_Id": 0,
    "m_DisplayName": "A",
    "m_SlotType": 0,
    "m_Hidden": false,
    "m_ShaderOutputName": "A",
    "m_StageCapability": 3,
    "m_Value": {
        "e00": 0.0,
        "e01": 0.0,
        "e02": 0.0,
        "e03": 0.0,
        "e10": 0.0,
        "e11": 0.0,
        "e12": 0.0,
        "e13": 0.0,
        "e20": 0.0,
        "e21": 0.0,
        "e22": 0.0,
        "e23": 0.0,
        "e30": 0.0,
        "e31": 0.0,
        "e32": 0.0,
        "e33": 0.0
    },
    "m_DefaultValue": {
        "e00": 1.0,
        "e01": 0.0,
        "e02": 0.0,
        "e03": 0.0,
        "e10": 0.0,
        "e11": 1.0,
        "e12": 0.0,
        "e13": 0.0,
        "e20": 0.0,
        "e21": 0.0,
        "e22": 1.0,
        "e23": 0.0,
        "e30": 0.0,
        "e31": 0.0,
        "e32": 0.0,
        "e33": 1.0
    }
}

{
    "m_SGVersion": 0,
    "m_Type": "UnityEditor.ShaderGraph.Vector2MaterialSlot",
    "m_ObjectId": "42176de63c434675b0bd83925548e60d",
    "m_Id": 1,
    "m_DisplayName": "Center",
    "m_SlotType": 0,
    "m_Hidden": false,
    "m_ShaderOutputName": "Center",
    "m_StageCapability": 3,
    "m_Value": {
        "x": 0.25999999046325686,
        "y": 0.5
    },
    "m_DefaultValue": {
        "x": 0.0,
        "y": 0.0
    },
    "m_Labels": []
}

{
    "m_SGVersion": 0,
    "m_Type": "UnityEditor.ShaderGraph.Vector2MaterialSlot",
    "m_ObjectId": "43125d8538194e72a9d09efce1f029e5",
    "m_Id": 2,
    "m_DisplayName": "Strength",
    "m_SlotType": 0,
    "m_Hidden": false,
    "m_ShaderOutputName": "Strength",
    "m_StageCapability": 3,
    "m_Value": {
        "x": 10.0,
        "y": 10.0
    },
    "m_DefaultValue": {
        "x": 0.0,
        "y": 0.0
    },
    "m_Labels": []
}

{
    "m_SGVersion": 0,
    "m_Type": "UnityEditor.ShaderGraph.ColorRGBMaterialSlot",
    "m_ObjectId": "4f0be95bad794b89a96d363163759948",
    "m_Id": 0,
    "m_DisplayName": "Base Color",
    "m_SlotType": 0,
    "m_Hidden": false,
    "m_ShaderOutputName": "BaseColor",
    "m_StageCapability": 2,
    "m_Value": {
        "x": 0.5,
        "y": 0.5,
        "z": 0.5
    },
    "m_DefaultValue": {
        "x": 0.0,
        "y": 0.0,
        "z": 0.0
    },
    "m_Labels": [],
    "m_ColorMode": 0,
    "m_DefaultColor": {
        "r": 0.5,
        "g": 0.5,
        "b": 0.5,
        "a": 1.0
    }
}

{
    "m_SGVersion": 0,
    "m_Type": "UnityEditor.ShaderGraph.VoronoiNode",
    "m_ObjectId": "5477623b156c4529afbf882910ad71f2",
    "m_Group": {
        "m_Id": ""
    },
    "m_Name": "Voronoi",
    "m_DrawState": {
        "m_Expanded": true,
        "m_Position": {
            "serializedVersion": "2",
            "x": -1263.3333740234375,
            "y": -215.3333282470703,
            "width": 209.3333740234375,
            "height": 328.0
        }
    },
    "m_Slots": [
        {
            "m_Id": "7542a523de9e4525bca4f564eb664242"
        },
        {
            "m_Id": "b4f13639b05741238e05a73cc9a77e24"
        },
        {
            "m_Id": "1f3d5be02cba49749f1976c2a7ffa9e0"
        },
        {
            "m_Id": "58553dc75e694d33a7000a6328bea777"
        },
        {
            "m_Id": "a5a3d5f2f0c9436f835ae711132622eb"
        }
    ],
    "synonyms": [
        "worley noise"
    ],
    "m_Precision": 0,
    "m_PreviewExpanded": true,
    "m_PreviewMode": 0,
    "m_CustomColors": {
        "m_SerializableColors": []
    }
}

{
    "m_SGVersion": 0,
    "m_Type": "UnityEditor.ShaderGraph.UVMaterialSlot",
    "m_ObjectId": "5795d3599b4f4dd7b9a8f01219b12da4",
    "m_Id": 0,
    "m_DisplayName": "UV",
    "m_SlotType": 0,
    "m_Hidden": false,
    "m_ShaderOutputName": "UV",
    "m_StageCapability": 3,
    "m_Value": {
        "x": 0.0,
        "y": 0.0
    },
    "m_DefaultValue": {
        "x": 0.0,
        "y": 0.0
    },
    "m_Labels": [],
    "m_Channel": 0
}

{
    "m_SGVersion": 0,
    "m_Type": "UnityEditor.ShaderGraph.Vector1MaterialSlot",
    "m_ObjectId": "58553dc75e694d33a7000a6328bea777",
    "m_Id": 3,
    "m_DisplayName": "Out",
    "m_SlotType": 1,
    "m_Hidden": false,
    "m_ShaderOutputName": "Out",
    "m_StageCapability": 3,
    "m_Value": 0.0,
    "m_DefaultValue": 0.0,
    "m_Labels": []
}

{
    "m_SGVersion": 0,
    "m_Type": "UnityEditor.ShaderGraph.TangentMaterialSlot",
    "m_ObjectId": "59f5720e659f4fb5a215fd25d8a3799b",
    "m_Id": 0,
    "m_DisplayName": "Tangent",
    "m_SlotType": 0,
    "m_Hidden": false,
    "m_ShaderOutputName": "Tangent",
    "m_StageCapability": 1,
    "m_Value": {
        "x": 0.0,
        "y": 0.0,
        "z": 0.0
    },
    "m_DefaultValue": {
        "x": 0.0,
        "y": 0.0,
        "z": 0.0
    },
    "m_Labels": [],
    "m_Space": 0
}

{
    "m_SGVersion": 0,
    "m_Type": "UnityEditor.ShaderGraph.Vector4MaterialSlot",
    "m_ObjectId": "5b386742a21b4360b876ffbbbb04bde0",
    "m_Id": 2,
    "m_DisplayName": "Out",
    "m_SlotType": 1,
    "m_Hidden": false,
    "m_ShaderOutputName": "Out",
    "m_StageCapability": 3,
    "m_Value": {
        "x": 0.0,
        "y": 0.0,
        "z": 0.0,
        "w": 0.0
    },
    "m_DefaultValue": {
        "x": 0.0,
        "y": 0.0,
        "z": 0.0,
        "w": 0.0
    },
    "m_Labels": []
}

{
    "m_SGVersion": 1,
    "m_Type": "UnityEditor.ShaderGraph.SampleGradient",
    "m_ObjectId": "5b92a81458bd4576b2d11adc11c0f40b",
    "m_Group": {
        "m_Id": ""
    },
    "m_Name": "Sample Gradient",
    "m_DrawState": {
        "m_Expanded": true,
        "m_Position": {
            "serializedVersion": "2",
            "x": -930.66650390625,
            "y": -382.0000305175781,
            "width": 209.33331298828126,
            "height": 304.0000305175781
        }
    },
    "m_Slots": [
        {
            "m_Id": "371089d8718749c8bae2ce8c8fd0744b"
        },
        {
            "m_Id": "6c85c4b98a12475f82c49bf7df65bdea"
        },
        {
            "m_Id": "5b386742a21b4360b876ffbbbb04bde0"
        }
    ],
    "synonyms": [],
    "m_Precision": 0,
    "m_PreviewExpanded": true,
    "m_PreviewMode": 0,
    "m_CustomColors": {
        "m_SerializableColors": []
    }
}

{
    "m_SGVersion": 1,
    "m_Type": "UnityEditor.ShaderGraph.ColorNode",
    "m_ObjectId": "6302b9092bc8494daf65f4838c7f5c3d",
    "m_Group": {
        "m_Id": ""
    },
    "m_Name": "Color",
    "m_DrawState": {
        "m_Expanded": true,
        "m_Position": {
            "serializedVersion": "2",
            "x": -1218.6668701171875,
            "y": 342.0000305175781,
            "width": 209.33343505859376,
            "height": 130.0
        }
    },
    "m_Slots": [
        {
            "m_Id": "6b6227736d0f477ebca22c422a863d12"
        }
    ],
    "synonyms": [
        "rgba"
    ],
    "m_Precision": 0,
    "m_PreviewExpanded": true,
    "m_PreviewMode": 0,
    "m_CustomColors": {
        "m_SerializableColors": []
    },
    "m_Color": {
        "color": {
            "r": 1.0,
            "g": 0.00784313678741455,
            "b": 0.1393968164920807,
            "a": 0.0
        },
        "mode": 0
    }
}

{
    "m_SGVersion": 0,
    "m_Type": "UnityEditor.ShaderGraph.Vector2MaterialSlot",
    "m_ObjectId": "667b46071dd84b0d9773a0eedb24f1d9",
    "m_Id": 4,
    "m_DisplayName": "Out",
    "m_SlotType": 1,
    "m_Hidden": false,
    "m_ShaderOutputName": "Out",
    "m_StageCapability": 3,
    "m_Value": {
        "x": 0.0,
        "y": 0.0
    },
    "m_DefaultValue": {
        "x": 0.0,
        "y": 0.0
    },
    "m_Labels": []
}

{
    "m_SGVersion": 0,
    "m_Type": "UnityEditor.ShaderGraph.PropertyNode",
    "m_ObjectId": "68015c1129b947518acb126a595cad0d",
    "m_Group": {
        "m_Id": ""
    },
    "m_Name": "Property",
    "m_DrawState": {
        "m_Expanded": true,
        "m_Position": {
            "serializedVersion": "2",
            "x": -881.3333129882813,
            "y": 94.66665649414063,
            "width": 110.0,
            "height": 36.00001525878906
        }
    },
    "m_Slots": [
        {
            "m_Id": "0fe1de1d510e4dbe952ee5e2e9d601d7"
        }
    ],
    "synonyms": [],
    "m_Precision": 0,
    "m_PreviewExpanded": true,
    "m_PreviewMode": 0,
    "m_CustomColors": {
        "m_SerializableColors": []
    },
    "m_Property": {
        "m_Id": "bada3fa1bc9b45b889447b53d7454380"
    }
}

{
    "m_SGVersion": 0,
    "m_Type": "UnityEditor.ShaderGraph.Vector4MaterialSlot",
    "m_ObjectId": "681897237a78415eb78cbe58da7e9cff",
    "m_Id": 0,
    "m_DisplayName": "Color",
    "m_SlotType": 1,
    "m_Hidden": false,
    "m_ShaderOutputName": "Out",
    "m_StageCapability": 3,
    "m_Value": {
        "x": 0.0,
        "y": 0.0,
        "z": 0.0,
        "w": 0.0
    },
    "m_DefaultValue": {
        "x": 0.0,
        "y": 0.0,
        "z": 0.0,
        "w": 0.0
    },
    "m_Labels": []
}

{
    "m_SGVersion": 0,
    "m_Type": "UnityEditor.ShaderGraph.TwirlNode",
    "m_ObjectId": "68ae386ffe4446719bdd21ad2f721c69",
    "m_Group": {
        "m_Id": ""
    },
    "m_Name": "Twirl",
    "m_DrawState": {
        "m_Expanded": true,
        "m_Position": {
            "serializedVersion": "2",
            "x": -910.0000610351563,
            "y": 342.0000305175781,
            "width": 209.33349609375,
            "height": 352.0000305175781
        }
    },
    "m_Slots": [
        {
            "m_Id": "d7291d4364344f2cad26f6ae9d36e72f"
        },
        {
            "m_Id": "9ad0cf5b21a0412782dfc01038d978a0"
        },
        {
            "m_Id": "d907aecce2274b2a8b33064345fd4575"
        },
        {
            "m_Id": "0124714062ac489ba75d4f74ab40c70a"
        },
        {
            "m_Id": "0cf2163e6f7f4e979e8a2036423ee517"
        }
    ],
    "synonyms": [],
    "m_Precision": 0,
    "m_PreviewExpanded": true,
    "m_PreviewMode": 0,
    "m_CustomColors": {
        "m_SerializableColors": []
    }
}

{
    "m_SGVersion": 0,
    "m_Type": "UnityEditor.ShaderGraph.DynamicValueMaterialSlot",
    "m_ObjectId": "69afbc8a25fa4bd684f72c8d5dfb7dc9",
    "m_Id": 2,
    "m_DisplayName": "Out",
    "m_SlotType": 1,
    "m_Hidden": false,
    "m_ShaderOutputName": "Out",
    "m_StageCapability": 3,
    "m_Value": {
        "e00": 0.0,
        "e01": 0.0,
        "e02": 0.0,
        "e03": 0.0,
        "e10": 0.0,
        "e11": 0.0,
        "e12": 0.0,
        "e13": 0.0,
        "e20": 0.0,
        "e21": 0.0,
        "e22": 0.0,
        "e23": 0.0,
        "e30": 0.0,
        "e31": 0.0,
        "e32": 0.0,
        "e33": 0.0
    },
    "m_DefaultValue": {
        "e00": 1.0,
        "e01": 0.0,
        "e02": 0.0,
        "e03": 0.0,
        "e10": 0.0,
        "e11": 1.0,
        "e12": 0.0,
        "e13": 0.0,
        "e20": 0.0,
        "e21": 0.0,
        "e22": 1.0,
        "e23": 0.0,
        "e30": 0.0,
        "e31": 0.0,
        "e32": 0.0,
        "e33": 1.0
    }
}

{
    "m_SGVersion": 0,
    "m_Type": "UnityEditor.ShaderGraph.Vector4MaterialSlot",
    "m_ObjectId": "6b6227736d0f477ebca22c422a863d12",
    "m_Id": 0,
    "m_DisplayName": "Out",
    "m_SlotType": 1,
    "m_Hidden": false,
    "m_ShaderOutputName": "Out",
    "m_StageCapability": 3,
    "m_Value": {
        "x": 0.0,
        "y": 0.0,
        "z": 0.0,
        "w": 0.0
    },
    "m_DefaultValue": {
        "x": 0.0,
        "y": 0.0,
        "z": 0.0,
        "w": 0.0
    },
    "m_Labels": []
}

{
    "m_SGVersion": 0,
    "m_Type": "UnityEditor.ShaderGraph.Vector1MaterialSlot",
    "m_ObjectId": "6c85c4b98a12475f82c49bf7df65bdea",
    "m_Id": 1,
    "m_DisplayName": "Time",
    "m_SlotType": 0,
    "m_Hidden": false,
    "m_ShaderOutputName": "Time",
    "m_StageCapability": 3,
    "m_Value": 0.0,
    "m_DefaultValue": 0.0,
    "m_Labels": []
}

{
    "m_SGVersion": 0,
    "m_Type": "UnityEditor.ShaderGraph.Vector1MaterialSlot",
    "m_ObjectId": "6e7e15968a914645bc1af03dac56f6b4",
    "m_Id": 0,
    "m_DisplayName": "Smoothness",
    "m_SlotType": 0,
    "m_Hidden": false,
    "m_ShaderOutputName": "Smoothness",
    "m_StageCapability": 2,
    "m_Value": 0.550000011920929,
    "m_DefaultValue": 0.5,
    "m_Labels": []
}

{
    "m_SGVersion": 0,
    "m_Type": "UnityEditor.ShaderGraph.UVMaterialSlot",
    "m_ObjectId": "7542a523de9e4525bca4f564eb664242",
    "m_Id": 0,
    "m_DisplayName": "UV",
    "m_SlotType": 0,
    "m_Hidden": false,
    "m_ShaderOutputName": "UV",
    "m_StageCapability": 3,
    "m_Value": {
        "x": 0.0,
        "y": 0.0
    },
    "m_DefaultValue": {
        "x": 0.0,
        "y": 0.0
    },
    "m_Labels": [],
    "m_Channel": 0
}

{
    "m_SGVersion": 0,
    "m_Type": "UnityEditor.ShaderGraph.PositionMaterialSlot",
    "m_ObjectId": "7f1a040f512248b6b14cea96b11cd117",
    "m_Id": 0,
    "m_DisplayName": "Position",
    "m_SlotType": 0,
    "m_Hidden": false,
    "m_ShaderOutputName": "Position",
    "m_StageCapability": 1,
    "m_Value": {
        "x": 0.0,
        "y": 0.0,
        "z": 0.0
    },
    "m_DefaultValue": {
        "x": 0.0,
        "y": 0.0,
        "z": 0.0
    },
    "m_Labels": [],
    "m_Space": 0
}

{
    "m_SGVersion": 3,
    "m_Type": "UnityEditor.ShaderGraph.Internal.ColorShaderProperty",
    "m_ObjectId": "8a76e3d6e45947059cfa278be5cdf33a",
    "m_Guid": {
        "m_GuidSerialized": "35de89f7-f9b6-4f33-ab8a-9cd758b43e66"
    },
    "m_Name": "Color",
    "m_DefaultRefNameVersion": 1,
    "m_RefNameGeneratedByDisplayName": "Color",
    "m_DefaultReferenceName": "_Color",
    "m_OverrideReferenceName": "",
    "m_GeneratePropertyBlock": true,
    "m_UseCustomSlotLabel": false,
    "m_CustomSlotLabel": "",
    "m_Precision": 0,
    "overrideHLSLDeclaration": false,
    "hlslDeclarationOverride": 0,
    "m_Hidden": false,
    "m_Value": {
        "r": 0.9528301954269409,
        "g": 0.9528301954269409,
        "b": 0.9528301954269409,
        "a": 0.0
    },
    "isMainColor": false,
    "m_ColorMode": 0
}

{
    "m_SGVersion": 0,
    "m_Type": "UnityEditor.ShaderGraph.NoiseSineWaveNode",
    "m_ObjectId": "8bec8945b7984527b0f93602133ae84f",
    "m_Group": {
        "m_Id": ""
    },
    "m_Name": "Noise Sine Wave",
    "m_DrawState": {
        "m_Expanded": true,
        "m_Position": {
            "serializedVersion": "2",
            "x": -1576.666748046875,
            "y": -191.3332977294922,
            "width": 209.3333740234375,
            "height": 303.99993896484377
        }
    },
    "m_Slots": [
        {
            "m_Id": "e8cbe09c1cd643f5a0086564e5eef074"
        },
        {
            "m_Id": "e2577784ede24276b90978733877e542"
        },
        {
            "m_Id": "b1364e2f5dae4911b4271281b9ced250"
        }
    ],
    "synonyms": [],
    "m_Precision": 0,
    "m_PreviewExpanded": true,
    "m_PreviewMode": 0,
    "m_CustomColors": {
        "m_SerializableColors": []
    }
}

{
    "m_SGVersion": 0,
    "m_Type": "UnityEditor.ShaderGraph.DynamicValueMaterialSlot",
    "m_ObjectId": "8f99ba3f62e7450d8df2694b9831a565",
    "m_Id": 1,
    "m_DisplayName": "B",
    "m_SlotType": 0,
    "m_Hidden": false,
    "m_ShaderOutputName": "B",
    "m_StageCapability": 3,
    "m_Value": {
        "e00": 2.0,
        "e01": 2.0,
        "e02": 2.0,
        "e03": 2.0,
        "e10": 2.0,
        "e11": 2.0,
        "e12": 2.0,
        "e13": 2.0,
        "e20": 2.0,
        "e21": 2.0,
        "e22": 2.0,
        "e23": 2.0,
        "e30": 2.0,
        "e31": 2.0,
        "e32": 2.0,
        "e33": 2.0
    },
    "m_DefaultValue": {
        "e00": 1.0,
        "e01": 0.0,
        "e02": 0.0,
        "e03": 0.0,
        "e10": 0.0,
        "e11": 1.0,
        "e12": 0.0,
        "e13": 0.0,
        "e20": 0.0,
        "e21": 0.0,
        "e22": 1.0,
        "e23": 0.0,
        "e30": 0.0,
        "e31": 0.0,
        "e32": 0.0,
        "e33": 1.0
    }
}

{
    "m_SGVersion": 0,
    "m_Type": "UnityEditor.ShaderGraph.BlockNode",
    "m_ObjectId": "944a9cb201ba4159acc5eaf2ecbcf2bd",
    "m_Group": {
        "m_Id": ""
    },
    "m_Name": "VertexDescription.Normal",
    "m_DrawState": {
        "m_Expanded": true,
        "m_Position": {
            "serializedVersion": "2",
            "x": 0.0,
            "y": 0.0,
            "width": 0.0,
            "height": 0.0
        }
    },
    "m_Slots": [
        {
            "m_Id": "d25b3ad4435f4febab2724fa26719780"
        }
    ],
    "synonyms": [],
    "m_Precision": 0,
    "m_PreviewExpanded": true,
    "m_PreviewMode": 0,
    "m_CustomColors": {
        "m_SerializableColors": []
    },
    "m_SerializedDescriptor": "VertexDescription.Normal"
}

{
    "m_SGVersion": 0,
    "m_Type": "UnityEditor.Rendering.Universal.ShaderGraph.UniversalLitSubTarget",
    "m_ObjectId": "963aa019f7304a3fac3613b7f59eee46",
    "m_WorkflowMode": 1,
    "m_NormalDropOffSpace": 0,
    "m_ClearCoat": false
}

{
    "m_SGVersion": 0,
    "m_Type": "UnityEditor.ShaderGraph.Vector2MaterialSlot",
    "m_ObjectId": "9ad0cf5b21a0412782dfc01038d978a0",
    "m_Id": 1,
    "m_DisplayName": "Center",
    "m_SlotType": 0,
    "m_Hidden": false,
    "m_ShaderOutputName": "Center",
    "m_StageCapability": 3,
    "m_Value": {
        "x": 0.5,
        "y": 0.5
    },
    "m_DefaultValue": {
        "x": 0.0,
        "y": 0.0
    },
    "m_Labels": []
}

{
    "m_SGVersion": 0,
    "m_Type": "UnityEditor.ShaderGraph.BlockNode",
    "m_ObjectId": "a18b53a6c78b4f3297c2c338714511a1",
    "m_Group": {
        "m_Id": ""
    },
    "m_Name": "SurfaceDescription.Metallic",
    "m_DrawState": {
        "m_Expanded": true,
        "m_Position": {
            "serializedVersion": "2",
            "x": 0.0,
            "y": 0.0,
            "width": 0.0,
            "height": 0.0
        }
    },
    "m_Slots": [
        {
            "m_Id": "e3694c82e4214591bd763d313a527d18"
        }
    ],
    "synonyms": [],
    "m_Precision": 0,
    "m_PreviewExpanded": true,
    "m_PreviewMode": 0,
    "m_CustomColors": {
        "m_SerializableColors": []
    },
    "m_SerializedDescriptor": "SurfaceDescription.Metallic"
}

{
    "m_SGVersion": 0,
    "m_Type": "UnityEditor.ShaderGraph.Vector1MaterialSlot",
    "m_ObjectId": "a5a3d5f2f0c9436f835ae711132622eb",
    "m_Id": 4,
    "m_DisplayName": "Cells",
    "m_SlotType": 1,
    "m_Hidden": false,
    "m_ShaderOutputName": "Cells",
    "m_StageCapability": 3,
    "m_Value": 0.0,
    "m_DefaultValue": 0.0,
    "m_Labels": []
}

{
    "m_SGVersion": 0,
    "m_Type": "UnityEditor.ShaderGraph.UVMaterialSlot",
    "m_ObjectId": "a852236ab43b499cad42845545a739c5",
    "m_Id": 0,
    "m_DisplayName": "UV",
    "m_SlotType": 0,
    "m_Hidden": false,
    "m_ShaderOutputName": "UV",
    "m_StageCapability": 3,
    "m_Value": {
        "x": 0.0,
        "y": 0.0
    },
    "m_DefaultValue": {
        "x": 0.0,
        "y": 0.0
    },
    "m_Labels": [],
    "m_Channel": 0
}

{
    "m_SGVersion": 1,
    "m_Type": "UnityEditor.Rendering.Universal.ShaderGraph.UniversalTarget",
    "m_ObjectId": "ab1279a353214a2a87b941ee460541be",
    "m_ActiveSubTarget": {
        "m_Id": "963aa019f7304a3fac3613b7f59eee46"
    },
    "m_AllowMaterialOverride": false,
    "m_SurfaceType": 0,
    "m_ZTestMode": 4,
    "m_ZWriteControl": 0,
    "m_AlphaMode": 0,
    "m_RenderFace": 2,
    "m_AlphaClip": false,
    "m_CastShadows": true,
    "m_ReceiveShadows": true,
    "m_CustomEditorGUI": "",
    "m_SupportVFX": false
}

{
    "m_SGVersion": 0,
    "m_Type": "UnityEditor.ShaderGraph.BlockNode",
    "m_ObjectId": "b0aa6af026ff415da4ea0decf3b9be8f",
    "m_Group": {
        "m_Id": ""
    },
    "m_Name": "SurfaceDescription.Emission",
    "m_DrawState": {
        "m_Expanded": true,
        "m_Position": {
            "serializedVersion": "2",
            "x": 0.0,
            "y": 0.0,
            "width": 0.0,
            "height": 0.0
        }
    },
    "m_Slots": [
        {
            "m_Id": "3ad6e3407dcf4d08b54c831a686900a5"
        }
    ],
    "synonyms": [],
    "m_Precision": 0,
    "m_PreviewExpanded": true,
    "m_PreviewMode": 0,
    "m_CustomColors": {
        "m_SerializableColors": []
    },
    "m_SerializedDescriptor": "SurfaceDescription.Emission"
}

{
    "m_SGVersion": 0,
    "m_Type": "UnityEditor.ShaderGraph.DynamicVectorMaterialSlot",
    "m_ObjectId": "b1364e2f5dae4911b4271281b9ced250",
    "m_Id": 2,
    "m_DisplayName": "Out",
    "m_SlotType": 1,
    "m_Hidden": false,
    "m_ShaderOutputName": "Out",
    "m_StageCapability": 3,
    "m_Value": {
        "x": 0.0,
        "y": 0.0,
        "z": 0.0,
        "w": 0.0
    },
    "m_DefaultValue": {
        "x": 0.0,
        "y": 0.0,
        "z": 0.0,
        "w": 0.0
    }
}

{
    "m_SGVersion": 0,
    "m_Type": "UnityEditor.ShaderGraph.Vector1MaterialSlot",
    "m_ObjectId": "b4f13639b05741238e05a73cc9a77e24",
    "m_Id": 1,
    "m_DisplayName": "Angle Offset",
    "m_SlotType": 0,
    "m_Hidden": false,
    "m_ShaderOutputName": "AngleOffset",
    "m_StageCapability": 3,
    "m_Value": 2.0,
    "m_DefaultValue": 2.0,
    "m_Labels": []
}

{
    "m_SGVersion": 1,
    "m_Type": "UnityEditor.ShaderGraph.Internal.Vector1ShaderProperty",
    "m_ObjectId": "bada3fa1bc9b45b889447b53d7454380",
    "m_Guid": {
        "m_GuidSerialized": "8be67d45-1262-4440-945f-1bc49f912067"
    },
    "m_Name": "escala",
    "m_DefaultRefNameVersion": 1,
    "m_RefNameGeneratedByDisplayName": "escala",
    "m_DefaultReferenceName": "_escala",
    "m_OverrideReferenceName": "",
    "m_GeneratePropertyBlock": true,
    "m_UseCustomSlotLabel": false,
    "m_CustomSlotLabel": "",
    "m_Precision": 0,
    "overrideHLSLDeclaration": false,
    "hlslDeclarationOverride": 0,
    "m_Hidden": false,
    "m_Value": 30.0,
    "m_FloatType": 0,
    "m_RangeValues": {
        "x": 0.0,
        "y": 1.2400000095367432
    }
}

{
    "m_SGVersion": 0,
    "m_Type": "UnityEditor.ShaderGraph.MultiplyNode",
    "m_ObjectId": "bb488c402b0649088304d1c1f2651782",
    "m_Group": {
        "m_Id": ""
    },
    "m_Name": "Multiply",
    "m_DrawState": {
        "m_Expanded": true,
        "m_Position": {
            "serializedVersion": "2",
            "x": -649.3333740234375,
            "y": -304.0,
            "width": 209.33334350585938,
            "height": 304.0000305175781
        }
    },
    "m_Slots": [
        {
            "m_Id": "3cfb64b622d14070a73d8bb656e3b08b"
        },
        {
            "m_Id": "8f99ba3f62e7450d8df2694b9831a565"
        },
        {
            "m_Id": "69afbc8a25fa4bd684f72c8d5dfb7dc9"
        }
    ],
    "synonyms": [
        "multiplication",
        "times",
        "x"
    ],
    "m_Precision": 0,
    "m_PreviewExpanded": true,
    "m_PreviewMode": 0,
    "m_CustomColors": {
        "m_SerializableColors": []
    }
}

{
    "m_SGVersion": 0,
    "m_Type": "UnityEditor.ShaderGraph.BlockNode",
    "m_ObjectId": "c97388d0ce924c8dba2f902993c3502f",
    "m_Group": {
        "m_Id": ""
    },
    "m_Name": "SurfaceDescription.Occlusion",
    "m_DrawState": {
        "m_Expanded": true,
        "m_Position": {
            "serializedVersion": "2",
            "x": 0.0,
            "y": 0.0,
            "width": 0.0,
            "height": 0.0
        }
    },
    "m_Slots": [
        {
            "m_Id": "05d80ad5c588478b9ff5c7469b68f22d"
        }
    ],
    "synonyms": [],
    "m_Precision": 0,
    "m_PreviewExpanded": true,
    "m_PreviewMode": 0,
    "m_CustomColors": {
        "m_SerializableColors": []
    },
    "m_SerializedDescriptor": "SurfaceDescription.Occlusion"
}

{
    "m_SGVersion": 0,
    "m_Type": "UnityEditor.ShaderGraph.NormalMaterialSlot",
    "m_ObjectId": "d25b3ad4435f4febab2724fa26719780",
    "m_Id": 0,
    "m_DisplayName": "Normal",
    "m_SlotType": 0,
    "m_Hidden": false,
    "m_ShaderOutputName": "Normal",
    "m_StageCapability": 1,
    "m_Value": {
        "x": 0.0,
        "y": 0.0,
        "z": 0.0
    },
    "m_DefaultValue": {
        "x": 0.0,
        "y": 0.0,
        "z": 0.0
    },
    "m_Labels": [],
    "m_Space": 0
}

{
    "m_SGVersion": 0,
    "m_Type": "UnityEditor.ShaderGraph.BlockNode",
    "m_ObjectId": "d2e01d174d264ad09e283c552d76d252",
    "m_Group": {
        "m_Id": ""
    },
    "m_Name": "SurfaceDescription.Smoothness",
    "m_DrawState": {
        "m_Expanded": true,
        "m_Position": {
            "serializedVersion": "2",
            "x": 0.0,
            "y": 0.0,
            "width": 0.0,
            "height": 0.0
        }
    },
    "m_Slots": [
        {
            "m_Id": "6e7e15968a914645bc1af03dac56f6b4"
        }
    ],
    "synonyms": [],
    "m_Precision": 0,
    "m_PreviewExpanded": true,
    "m_PreviewMode": 0,
    "m_CustomColors": {
        "m_SerializableColors": []
    },
    "m_SerializedDescriptor": "SurfaceDescription.Smoothness"
}

{
    "m_SGVersion": 0,
    "m_Type": "UnityEditor.ShaderGraph.BlockNode",
    "m_ObjectId": "d714daa8c8be4d6ea45771b61efffc2c",
    "m_Group": {
        "m_Id": ""
    },
    "m_Name": "VertexDescription.Position",
    "m_DrawState": {
        "m_Expanded": true,
        "m_Position": {
            "serializedVersion": "2",
            "x": 0.0,
            "y": 0.0,
            "width": 0.0,
            "height": 0.0
        }
    },
    "m_Slots": [
        {
            "m_Id": "7f1a040f512248b6b14cea96b11cd117"
        }
    ],
    "synonyms": [],
    "m_Precision": 0,
    "m_PreviewExpanded": true,
    "m_PreviewMode": 0,
    "m_CustomColors": {
        "m_SerializableColors": []
    },
    "m_SerializedDescriptor": "VertexDescription.Position"
}

{
    "m_SGVersion": 0,
    "m_Type": "UnityEditor.ShaderGraph.UVMaterialSlot",
    "m_ObjectId": "d7291d4364344f2cad26f6ae9d36e72f",
    "m_Id": 0,
    "m_DisplayName": "UV",
    "m_SlotType": 0,
    "m_Hidden": false,
    "m_ShaderOutputName": "UV",
    "m_StageCapability": 3,
    "m_Value": {
        "x": 0.0,
        "y": 0.0
    },
    "m_DefaultValue": {
        "x": 0.0,
        "y": 0.0
    },
    "m_Labels": [],
    "m_Channel": 0
}

{
    "m_SGVersion": 0,
    "m_Type": "UnityEditor.ShaderGraph.Vector1MaterialSlot",
    "m_ObjectId": "d907aecce2274b2a8b33064345fd4575",
    "m_Id": 2,
    "m_DisplayName": "Strength",
    "m_SlotType": 0,
    "m_Hidden": false,
    "m_ShaderOutputName": "Strength",
    "m_StageCapability": 3,
    "m_Value": 21.989999771118165,
    "m_DefaultValue": 10.0,
    "m_Labels": []
}

{
    "m_SGVersion": 0,
    "m_Type": "UnityEditor.ShaderGraph.GradientNoiseNode",
    "m_ObjectId": "dcfcd6ac69ee417193c2ae1a0b3a7589",
    "m_Group": {
        "m_Id": ""
    },
    "m_Name": "Gradient Noise",
    "m_DrawState": {
        "m_Expanded": true,
        "m_Position": {
            "serializedVersion": "2",
            "x": -675.3333129882813,
            "y": 38.00003433227539,
            "width": 209.33331298828126,
            "height": 304.0000305175781
        }
    },
    "m_Slots": [
        {
            "m_Id": "5795d3599b4f4dd7b9a8f01219b12da4"
        },
        {
            "m_Id": "0ea26e50f5004efd8ecbe8a4b1f96a7c"
        },
        {
            "m_Id": "ef7fbf2605604fb090c7e1bad85818aa"
        }
    ],
    "synonyms": [
        "perlin noise"
    ],
    "m_Precision": 0,
    "m_PreviewExpanded": true,
    "m_PreviewMode": 0,
    "m_CustomColors": {
        "m_SerializableColors": []
    }
}

{
    "m_SGVersion": 0,
    "m_Type": "UnityEditor.ShaderGraph.Vector2MaterialSlot",
    "m_ObjectId": "e2577784ede24276b90978733877e542",
    "m_Id": 1,
    "m_DisplayName": "Min Max",
    "m_SlotType": 0,
    "m_Hidden": false,
    "m_ShaderOutputName": "MinMax",
    "m_StageCapability": 3,
    "m_Value": {
        "x": -1.3600000143051148,
        "y": 1.75
    },
    "m_DefaultValue": {
        "x": 0.0,
        "y": 0.0
    },
    "m_Labels": []
}

{
    "m_SGVersion": 0,
    "m_Type": "UnityEditor.ShaderGraph.Vector1MaterialSlot",
    "m_ObjectId": "e3694c82e4214591bd763d313a527d18",
    "m_Id": 0,
    "m_DisplayName": "Metallic",
    "m_SlotType": 0,
    "m_Hidden": false,
    "m_ShaderOutputName": "Metallic",
    "m_StageCapability": 2,
    "m_Value": 0.38999998569488528,
    "m_DefaultValue": 0.0,
    "m_Labels": []
}

{
    "m_SGVersion": 0,
    "m_Type": "UnityEditor.ShaderGraph.PropertyNode",
    "m_ObjectId": "e62f88763e214b55a4c8c9bd9bbf5c5f",
    "m_Group": {
        "m_Id": ""
    },
    "m_Name": "Property",
    "m_DrawState": {
        "m_Expanded": true,
        "m_Position": {
            "serializedVersion": "2",
            "x": -825.9999389648438,
            "y": -35.99999237060547,
            "width": 106.66668701171875,
            "height": 36.00000762939453
        }
    },
    "m_Slots": [
        {
            "m_Id": "681897237a78415eb78cbe58da7e9cff"
        }
    ],
    "synonyms": [],
    "m_Precision": 0,
    "m_PreviewExpanded": true,
    "m_PreviewMode": 0,
    "m_CustomColors": {
        "m_SerializableColors": []
    },
    "m_Property": {
        "m_Id": "8a76e3d6e45947059cfa278be5cdf33a"
    }
}

{
    "m_SGVersion": 0,
    "m_Type": "UnityEditor.ShaderGraph.DynamicVectorMaterialSlot",
    "m_ObjectId": "e8cbe09c1cd643f5a0086564e5eef074",
    "m_Id": 0,
    "m_DisplayName": "In",
    "m_SlotType": 0,
    "m_Hidden": false,
    "m_ShaderOutputName": "In",
    "m_StageCapability": 3,
    "m_Value": {
        "x": 3.0399999618530275,
        "y": 0.0,
        "z": 0.0,
        "w": 0.0
    },
    "m_DefaultValue": {
        "x": 0.0,
        "y": 0.0,
        "z": 0.0,
        "w": 0.0
    }
}

{
    "m_SGVersion": 0,
    "m_Type": "UnityEditor.ShaderGraph.Vector1MaterialSlot",
    "m_ObjectId": "ef7fbf2605604fb090c7e1bad85818aa",
    "m_Id": 2,
    "m_DisplayName": "Out",
    "m_SlotType": 1,
    "m_Hidden": false,
    "m_ShaderOutputName": "Out",
    "m_StageCapability": 3,
    "m_Value": 0.0,
    "m_DefaultValue": 0.0,
    "m_Labels": []
}

{
    "m_SGVersion": 0,
    "m_Type": "UnityEditor.ShaderGraph.BlockNode",
    "m_ObjectId": "fab1c69e78784aaba12bb4a6712cbfbd",
    "m_Group": {
        "m_Id": ""
    },
    "m_Name": "SurfaceDescription.NormalTS",
    "m_DrawState": {
        "m_Expanded": true,
        "m_Position": {
            "serializedVersion": "2",
            "x": 0.0,
            "y": 0.0,
            "width": 0.0,
            "height": 0.0
        }
    },
    "m_Slots": [
        {
            "m_Id": "295ae98e36704fb4b61a1cae0ce28e75"
        }
    ],
    "synonyms": [],
    "m_Precision": 0,
    "m_PreviewExpanded": true,
    "m_PreviewMode": 0,
    "m_CustomColors": {
        "m_SerializableColors": []
    },
    "m_SerializedDescriptor": "SurfaceDescription.NormalTS"
}

{
    "m_SGVersion": 3,
    "m_Type": "UnityEditor.ShaderGraph.Internal.ColorShaderProperty",
    "m_ObjectId": "facbd1b9447349a1ba3cebb955aa1c02",
    "m_Guid": {
        "m_GuidSerialized": "60f8ff7b-c506-4ad5-9a33-948b37a0dba7"
    },
    "m_Name": "Color (1)",
    "m_DefaultRefNameVersion": 1,
    "m_RefNameGeneratedByDisplayName": "Color (1)",
    "m_DefaultReferenceName": "_Color_1",
    "m_OverrideReferenceName": "",
    "m_GeneratePropertyBlock": true,
    "m_UseCustomSlotLabel": false,
    "m_CustomSlotLabel": "",
    "m_Precision": 0,
    "overrideHLSLDeclaration": false,
    "hlslDeclarationOverride": 0,
    "m_Hidden": false,
    "m_Value": {
        "r": 0.0,
        "g": 0.0,
        "b": 0.0,
        "a": 0.0
    },
    "isMainColor": false,
    "m_ColorMode": 0
}

